{
  "shell_port": 38175,
  "iopub_port": 57429,
  "stdin_port": 55299,
  "control_port": 41483,
  "hb_port": 32993,
  "ip": "127.0.0.1",
  "key": "ac6c938b-5fb24fe4425aa4efed4c8e44",
  "transport": "tcp",
  "signature_scheme": "hmac-sha256",
  "kernel_name": ""
}