{
  "shell_port": 33025,
  "iopub_port": 41819,
  "stdin_port": 36227,
  "control_port": 38151,
  "hb_port": 56155,
  "ip": "127.0.0.1",
  "key": "775a9822-d41dc548c8090ab5da9aee53",
  "transport": "tcp",
  "signature_scheme": "hmac-sha256",
  "kernel_name": ""
}